{
  "data": [
    {
      "key": "1",
      "id": 1,
      "title1": "title1",
      "title2": "title2",
      "description1": "description1",
      "description2": "description2",
      "img1": "img1",
      "img2": "img2"
    },
    {
      "key": "2",
      "id": 2,
      "title1": "title1",
      "title2": "title2",
      "description1": "description1",
      "description2": "description2",
      "img1": "img1",
      "img2": "img2"
    },
    {
      "key": "3",
      "id": 3,
      "title1": "title1",
      "title2": "title2",
      "description1": "description1",
      "description2": "description2",
      "img1": "img1",
      "img2": "img2"
    }
  ],
  "meta": {
    "itemCount": 100
  }
}
