{
  "data": [
    {
      "id": 1,
      "name": "Cuti Tahunan"
    },
    {
      "id": 2,
      "name": "Izin Sakit"
    },
    {
      "id": 3,
      "name": "Lainnya"
    },
    {
      "id": 4,
      "name": "Libur"
    }
  ],
  "meta": {
    "itemCount": 100
  }
}
